Cipro PBPK
…
summ <- map_df(mic, function(.mic) {
  auc %>% mutate(mic = .mic, aucr = auc/mic, reg = lab[group])
})

plot_reg <- function(data,.reg,.bins=80) {
  sumx <- filter(data, reg==.reg)
  ggplot(sumx, aes(x = aucr)) + 
    geom_histogram(alpha = 0.7,col="grey", bins = .bins) + 
    geom_vline(xintercept=125, col="cornflowerblue", lwd=1, lty=2) + 
    facet_grid(mic~reg) + theme_bw() 
}

count(summ,reg)

. # A tibble: 4,000 x 3
. # Groups:   irep [1,000]
.     irep reg          n
.    <dbl> <chr>    <int>
.  1     1 200q12RF     3
.  2     1 400q12       3
.  3     1 400q12RF     3
.  4     1 400q8        3
.  5     2 200q12RF     3
.  6     2 400q12       3
.  7     2 400q12RF     3
.  8     2 400q8        3
.  9     3 200q12RF     3
. 10     3 400q12       3
. #  with 3,990 more rows
…
