Probability of Technical Success - EPO IV/SC QW/TIW
…
6.3 Summarize

Our target is HGB > 10

sum1 <- 
  out %>% 
  filter(time > 0) %>%
  group_by(irep,time,qw) %>%
  summarise(success = mean(HGBi >= 10), n = n())  %>%
  ungroup() %>%
  mutate(week = time/24/7)

sum1

. # A tibble: 1,000 x 6
.     irep  time    qw success     n  week
.    <int> <dbl> <dbl>   <dbl> <int> <dbl>
.  1     1   672     0   0.627   150     4
.  2     1   672     1   0.647   150     4
.  3     2   672     0   0.827   150     4
.  4     2   672     1   0.753   150     4
.  5     3   672     0   0.8     150     4
.  6     3   672     1   0.76    150     4
.  7     4   672     0   0.767   150     4
.  8     4   672     1   0.567   150     4
.  9     5   672     0   0.853   150     4
. 10     5   672     1   0.72    150     4
. #  with 990 more rows
…
