Fc-OPG PK/PD in healthy post-menopausal women
…
Also note

We update param with ith row from post

We update OMEGA and SIGMA from the ith position in the appropriate list of matrices

We will capture the current

It is easy to test the function. The 10th replicate will look like this

sim(10,sc3,des)

. # A tibble: 200 x 7
.       ID  time  PDDV  irep TVIC50  TVQ1 TVVMAX
.    <dbl> <dbl> <dbl> <dbl>  <dbl> <dbl>  <dbl>
.  1     1     0 78.8     10   3.68  15.8  16100
.  2     1   336 41.5     10   3.68  15.8  16100
.  3     2     0 45.9     10   3.68  15.8  16100
.  4     2   336  9.88    10   3.68  15.8  16100
.  5     3     0 37.7     10   3.68  15.8  16100
.  6     3   336 20.0     10   3.68  15.8  16100
.  7     4     0 32.1     10   3.68  15.8  16100
.  8     4   336 -4.46    10   3.68  15.8  16100
.  9     5     0 20.4     10   3.68  15.8  16100
. 10     5   336 25.1     10   3.68  15.8  16100
. #  with 190 more rows
…
summ

. # A tibble: 1,000 x 2
.     irep   med
.    <int> <dbl>
.  1     1 -49.8
.  2     2 -43.5
.  3     3 -40.4
.  4     4 -51.0
.  5     5 -53.1
.  6     6 -52.6
.  7     7 -41.8
.  8     8 -40.7
.  9     9 -30.0
. 10    10 -45.7
. #  with 990 more rows
…
