Rifampicin PBPK Model to Predict Complex DDIs
…
sim_ddi <- function(rif_dose, mid_dose = 3) {
  mid <- ev(amt = mid_dose, cmt = 2)
  rif <- ev(amt = rif_dose, ii = 24, addl = 6)
  rif_mid <- ev_seq(rif, wait = -12, mid)
  
  mod %>% 
    mrgsim_e(rif_mid, Req="Cmidazolam", end = 166) %>% 
    filter_sims(time >= 156) %>%
    mutate(rif = rif_dose, mid = mid_dose)
}

sim_ddi(600)

. # A tibble: 102 x 5
.       ID  time Cmidazolam   rif   mid
.    <dbl> <dbl>      <dbl> <dbl> <dbl>
.  1     1  156       0       600     3
.  2     1  156       0       600     3
.  3     1  156.      0.323   600     3
.  4     1  156.      0.597   600     3
.  5     1  156.      0.758   600     3
.  6     1  156.      0.845   600     3
.  7     1  156.      0.884   600     3
.  8     1  157.      0.893   600     3
.  9     1  157.      0.883   600     3
. 10     1  157.      0.860   600     3
. #  with 92 more rows

out <- map_df(seq(0,600,10), .f = sim_ddi)

Summarize the simulations by both rifampicin dose and midazolam dose. Because we simulated the zero rifampicin dose, we get the percent reduction in AUC by dividing by the first auc in the series

summ <- 
  out %>%
  group_by(rif,mid) %>%
  summarise(auc = auc_partial(time,Cmidazolam)) %>%
  ungroup() %>%
  mutate(pAUC = 100*(auc/first(auc)))

summ

. # A tibble: 61 x 4
.      rif   mid   auc  pAUC
.    <dbl> <dbl> <dbl> <dbl>
.  1     0     3 24.7  100  
.  2    10     3 13.9   56.3
.  3    20     3 11.2   45.4
.  4    30     3  9.74  39.4
.  5    40     3  8.76  35.5
.  6    50     3  8.05  32.6
.  7    60     3  7.49  30.3
.  8    70     3  7.04  28.5
.  9    80     3  6.66  27.0
. 10    90     3  6.33  25.6
. #  with 51 more rows
…
